{
	"href": "http://developer.qa.ebay.com/sell/fulfillment/v1/order?filter=creationdate:%5B2020-05-01T15:05:43.026Z..%5D&limit=10&offset=10",
	"total": 261,
	"prev": "http://developer.qa.ebay.com/sell/fulfillment/v1/order?filter=creationdate:%5B2020-05-01T15:05:43.026Z..%5D&limit=10&offset=0",
	"next": "http://developer.qa.ebay.com/sell/fulfillment/v1/order?filter=creationdate:%5B2020-05-01T15:05:43.026Z..%5D&limit=10&offset=20",
	"limit": 10,
	"offset": 10,
	"orders": [
		{
			"orderId": "2*********9",
			"legacyOrderId": "6********0",
			"creationDate": "2020-06-28T04:34:08.000Z",
			"lastModifiedDate": "2020-06-29T00:55:11.000Z",
			"orderFulfillmentStatus": "NOT_STARTED",
			"orderPaymentStatus": "PAID",
			"sellerId": "k********1",
			"buyer": {
				"username": "m********r",
				"taxAddress": {
					"city": "S********e",
					"stateOrProvince": "**",
					"postalCode": "9****5",
					"countryCode": "US"
				}
			},
			"pricingSummary": {
				"priceSubtotal": {
					"value": "6.0",
					"currency": "USD"
				},
				"deliveryCost": {
					"value": "6.0",
					"currency": "USD"
				},
				"total": {
					"value": "12.0",
					"currency": "USD"
				}
			},
			"cancelStatus": {
				"cancelState": "NONE_REQUESTED",
				"cancelRequests": []
			},
			"paymentSummary": {
				"totalDueSeller": {
					"value": "12.0",
					"currency": "USD"
				},
				"refunds": [],
				"payments": [
					{
						"paymentMethod": "PAYPAL",
						"paymentReferenceId": "5********7",
						"amount": {
							"value": "12.0",
							"currency": "USD"
						},
						"paymentStatus": "PAID",
						"paymentHolds": [
							{
								"holdReason": "NEW_SELLER",
								"holdAmount": {
									"value": "12.0",
									"currency": "USD"
								},
								"holdState": "HELD",
								"expectedReleaseDate": "2020-07-19T04:34:13.000Z",
								"releaseDate": "2020-06-28T04:34:13.000Z",
								"sellerActionsToRelease": [
									{
										"sellerActionToRelease": "MARK_AS_SHIPPED"
									}
								]
							}
						]
					}
				]
			},
			"fulfillmentStartInstructions": [
				{
					"fulfillmentInstructionsType": "SHIP_TO",
					"minEstimatedDeliveryDate": "2020-07-07T07:00:00.000Z",
					"maxEstimatedDeliveryDate": "2020-07-07T07:00:00.000Z",
					"ebaySupportedFulfillment": false,
					"shippingStep": {
						"shipTo": {
							"fullName": "C********s",
							"contactAddress": {
								"addressLine1": "2********e",
								"addressLine2": "R********t",
								"city": "S*****e",
								"county": "S********y",
								"stateOrProvince": "**",
								"postalCode": "9****5",
								"countryCode": "US"
							},
							"primaryPhone": {
								"phoneNumber": "9**-***-***1"
							},
							"email": "m*****@***.com"
						},
						"shippingServiceCode": "ShippingMethodExpress"
					}
				}
			],
			"fulfillmentHrefs": [],
			"lineItems": [
				{
					"lineItemId": "1********1",
					"legacyItemId": "2********3",
					"legacyVariationId": "5********8",
					"sku": "T*****R",
					"title": "0-2020-06-27-21-33-34: Mamatha Awaiting Shipment shipment overdue-1********3",
					"lineItemCost": {
						"value": "1.0",
						"currency": "USD"
					},
					"quantity": 1,
					"soldFormat": "FIXED_PRICE",
					"listingMarketplaceId": "EBAY_US",
					"purchaseMarketplaceId": "EBAY_US",
					"lineItemFulfillmentStatus": "NOT_STARTED",
					"total": {
						"value": "2.0",
						"currency": "USD"
					},
					"deliveryCost": {
						"shippingCost": {
							"value": "1.0",
							"currency": "USD"
						}
					},
					"appliedPromotions": [],
					"taxes": [
						{
							"amount": {
								"value": "0.0",
								"currency": "USD"
							}
						}
					],
					"ebayCollectAndRemitTaxes": [
						{
							"taxType": "STATE_SALES_TAX",
							"amount": {
								"value": "0.0",
								"currency": "USD"
							},
							"collectionMethod": "NET"
						}
					],
					"properties": {
						"buyerProtection": true
					},
					"lineItemFulfillmentInstructions": {
						"minEstimatedDeliveryDate": "2020-07-07T07:00:00.000Z",
						"maxEstimatedDeliveryDate": "2020-07-07T07:00:00.000Z",
						"shipByDate": "2020-07-01T06:59:59.000Z",
						"guaranteedDelivery": false
					}
				},
				{
					"lineItemId": "1********2",
					"legacyItemId": "2********4",
					"legacyVariationId": "5********9",
					"sku": "T*****R",
					"title": "0-2020-06-27-21-33-37: Mamatha Awaiting Shipment ship today-1********4",
					"lineItemCost": {
						"value": "2.0",
						"currency": "USD"
					},
					"quantity": 2,
					"soldFormat": "FIXED_PRICE",
					"listingMarketplaceId": "EBAY_US",
					"purchaseMarketplaceId": "EBAY_US",
					"lineItemFulfillmentStatus": "NOT_STARTED",
					"total": {
						"value": "4.0",
						"currency": "USD"
					},
					"deliveryCost": {
						"shippingCost": {
							"value": "2.0",
							"currency": "USD"
						}
					},
					"appliedPromotions": [],
					"taxes": [
						{
							"amount": {
								"value": "0.0",
								"currency": "USD"
							}
						}
					],
					"ebayCollectAndRemitTaxes": [
						{
							"taxType": "STATE_SALES_TAX",
							"amount": {
								"value": "0.0",
								"currency": "USD"
							},
							"collectionMethod": "NET"
						}
					],
					"properties": {
						"buyerProtection": true
					},
					"lineItemFulfillmentInstructions": {
						"minEstimatedDeliveryDate": "2020-07-07T07:00:00.000Z",
						"maxEstimatedDeliveryDate": "2020-07-07T07:00:00.000Z",
						"shipByDate": "2020-07-01T06:59:59.000Z",
						"guaranteedDelivery": false
					}
				},
				{
					"lineItemId": "1********3",
					"legacyItemId": "2********5",
					"legacyVariationId": "5********0",
					"sku": "T*****R",
					"title": "0-2020-06-27-21-33-41: Mamatha Awaiting Shipment ship today-1********5",
					"lineItemCost": {
						"value": "3.0",
						"currency": "USD"
					},
					"quantity": 3,
					"soldFormat": "FIXED_PRICE",
					"listingMarketplaceId": "EBAY_US",
					"purchaseMarketplaceId": "EBAY_US",
					"lineItemFulfillmentStatus": "NOT_STARTED",
					"total": {
						"value": "6.0",
						"currency": "USD"
					},
					"deliveryCost": {
						"shippingCost": {
							"value": "3.0",
							"currency": "USD"
						}
					},
					"appliedPromotions": [],
					"taxes": [
						{
							"amount": {
								"value": "0.0",
								"currency": "USD"
							}
						}
					],
					"ebayCollectAndRemitTaxes": [
						{
							"taxType": "STATE_SALES_TAX",
							"amount": {
								"value": "0.0",
								"currency": "USD"
							},
							"collectionMethod": "NET"
						}
					],
					"properties": {
						"buyerProtection": true
					},
					"lineItemFulfillmentInstructions": {
						"minEstimatedDeliveryDate": "2020-07-07T07:00:00.000Z",
						"maxEstimatedDeliveryDate": "2020-07-07T07:00:00.000Z",
						"shipByDate": "2020-07-01T06:59:59.000Z",
						"guaranteedDelivery": false
					}
				}
			],
			"ebayCollectAndRemitTax": true,
			"salesRecordReference": "9**2",
			"totalFeeBasisAmount": {
				"value": "12.0",
				"currency": "USD"
			}
		},
		{
			"orderId": "2********",
			"legacyOrderId": "2********9",
			"creationDate": "2020-06-28T04:31:04.000Z",
			"lastModifiedDate": "2020-06-28T16:46:35.000Z",
			"orderFulfillmentStatus": "NOT_STARTED",
			"orderPaymentStatus": "PAID",
			"sellerId": "k********1",
			"buyer": {
				"username": "m********r",
				"taxAddress": {
					"city": "S********e",
					"stateOrProvince": "**",
					"postalCode": "9****5",
					"countryCode": "US"
				}
			},
			"pricingSummary": {
				"priceSubtotal": {
					"value": "2.2",
					"currency": "USD"
				},
				"deliveryCost": {
					"value": "2.0",
					"currency": "USD"
				},
				"total": {
					"value": "4.2",
					"currency": "USD"
				}
			},
			"cancelStatus": {
				"cancelState": "NONE_REQUESTED",
				"cancelRequests": []
			},
			"paymentSummary": {
				"totalDueSeller": {
					"value": "4.2",
					"currency": "USD"
				},
				"refunds": [],
				"payments": [
					{
						"paymentMethod": "PAYPAL",
						"paymentReferenceId": "3********N",
						"amount": {
							"value": "4.2",
							"currency": "USD"
						},
						"paymentStatus": "PAID",
						"paymentHolds": [
							{
								"holdReason": "NEW_SELLER",
								"holdAmount": {
									"value": "4.2",
									"currency": "USD"
								},
								"holdState": "HELD",
								"expectedReleaseDate": "2020-07-19T04:31:19.000Z",
								"releaseDate": "2020-06-28T04:31:19.000Z",
								"sellerActionsToRelease": [
									{
										"sellerActionToRelease": "MARK_AS_SHIPPED"
									}
								]
							}
						]
					}
				]
			},
			"fulfillmentStartInstructions": [
				{
					"fulfillmentInstructionsType": "SHIP_TO",
					"minEstimatedDeliveryDate": "2020-07-07T07:00:00.000Z",
					"maxEstimatedDeliveryDate": "2020-07-07T07:00:00.000Z",
					"ebaySupportedFulfillment": false,
					"shippingStep": {
						"shipTo": {
							"fullName": "C********s",
							"contactAddress": {
								"addressLine1": "2********e",
								"addressLine2": "R********t",
								"city": "S********e",
								"county": "M********y",
								"stateOrProvince": "**",
								"postalCode": "9****5",
								"countryCode": "US"
							},
							"primaryPhone": {
								"phoneNumber": "4**-***-***1"
							},
							"email": "m*****@***.com"
						},
						"shippingServiceCode": "ShippingMethodExpress"
					}
				}
			],
			"fulfillmentHrefs": [],
			"lineItems": [
				{
					"lineItemId": "1********4",
					"legacyItemId": "2********",
					"title": "0-2020-06-27-21-30-44: Mamatha Awaiting Shipment shipment overdue-1********5",
					"lineItemCost": {
						"value": "2.2",
						"currency": "USD"
					},
					"quantity": 2,
					"soldFormat": "FIXED_PRICE",
					"listingMarketplaceId": "EBAY_US",
					"purchaseMarketplaceId": "EBAY_US",
					"lineItemFulfillmentStatus": "NOT_STARTED",
					"total": {
						"value": "4.47",
						"currency": "USD"
					},
					"deliveryCost": {
						"shippingCost": {
							"value": "2.0",
							"currency": "USD"
						}
					},
					"appliedPromotions": [],
					"taxes": [
						{
							"amount": {
								"value": "0.27",
								"currency": "USD"
							}
						}
					],
					"ebayCollectAndRemitTaxes": [
						{
							"taxType": "STATE_SALES_TAX",
							"amount": {
								"value": "0.27",
								"currency": "USD"
							},
							"collectionMethod": "NET"
						}
					],
					"properties": {
						"buyerProtection": true
					},
					"lineItemFulfillmentInstructions": {
						"minEstimatedDeliveryDate": "2020-07-07T07:00:00.000Z",
						"maxEstimatedDeliveryDate": "2020-07-07T07:00:00.000Z",
						"shipByDate": "2020-07-01T06:59:59.000Z",
						"guaranteedDelivery": false
					}
				}
			],
			"ebayCollectAndRemitTax": true,
			"salesRecordReference": "9**8",
			"totalFeeBasisAmount": {
				"value": "4.47",
				"currency": "USD"
			}
		},
		{
			"orderId": "0********",
			"legacyOrderId": "2********9",
			"creationDate": "2020-06-28T04:28:10.000Z",
			"lastModifiedDate": "2020-06-28T16:57:56.000Z",
			"orderFulfillmentStatus": "NOT_STARTED",
			"orderPaymentStatus": "PAID",
			"sellerId": "k********1",
			"buyer": {
				"username": "m********r",
				"taxAddress": {
					"city": "S********e",
					"stateOrProvince": "**",
					"postalCode": "9****5",
					"countryCode": "US"
				}
			},
			"pricingSummary": {
				"priceSubtotal": {
					"value": "2.2",
					"currency": "USD"
				},
				"deliveryCost": {
					"value": "2.0",
					"currency": "USD"
				},
				"total": {
					"value": "4.2",
					"currency": "USD"
				}
			},
			"cancelStatus": {
				"cancelState": "NONE_REQUESTED",
				"cancelRequests": []
			},
			"paymentSummary": {
				"totalDueSeller": {
					"value": "4.2",
					"currency": "USD"
				},
				"refunds": [],
				"payments": [
					{
						"paymentMethod": "PAYPAL",
						"paymentReferenceId": "4********U",
						"amount": {
							"value": "4.2",
							"currency": "USD"
						},
						"paymentStatus": "PAID",
						"paymentHolds": [
							{
								"holdReason": "NEW_SELLER",
								"holdAmount": {
									"value": "4.2",
									"currency": "USD"
								},
								"holdState": "HELD",
								"expectedReleaseDate": "2020-07-19T04:28:31.000Z",
								"releaseDate": "2020-06-28T04:28:31.000Z",
								"sellerActionsToRelease": [
									{
										"sellerActionToRelease": "MARK_AS_SHIPPED"
									}
								]
							}
						]
					}
				]
			},
			"fulfillmentStartInstructions": [
				{
					"fulfillmentInstructionsType": "SHIP_TO",
					"minEstimatedDeliveryDate": "2020-07-07T07:00:00.000Z",
					"maxEstimatedDeliveryDate": "2020-07-07T07:00:00.000Z",
					"ebaySupportedFulfillment": false,
					"shippingStep": {
						"shipTo": {
							"fullName": "C********s",
							"contactAddress": {
								"addressLine1": "2********e",
								"addressLine2": "R********t",
								"city": "S********e",
								"county": "W********y",
								"stateOrProvince": "**",
								"postalCode": "9****5",
								"countryCode": "US"
							},
							"primaryPhone": {
								"phoneNumber": "3**-***-***2"
							},
							"email": "m*****@***.com"
						},
						"shippingServiceCode": "ShippingMethodExpress"
					}
				}
			],
			"fulfillmentHrefs": [],
			"lineItems": [
				{
					"lineItemId": "1********5",
					"legacyItemId": "2********0",
					"title": "0-2020-06-27-21-27-43: Mamatha Awaiting Shipment Ship Today -1********0",
					"lineItemCost": {
						"value": "2.2",
						"currency": "USD"
					},
					"quantity": 2,
					"soldFormat": "FIXED_PRICE",
					"listingMarketplaceId": "EBAY_US",
					"purchaseMarketplaceId": "EBAY_US",
					"lineItemFulfillmentStatus": "NOT_STARTED",
					"total": {
						"value": "4.45",
						"currency": "USD"
					},
					"deliveryCost": {
						"shippingCost": {
							"value": "2.0",
							"currency": "USD"
						}
					},
					"appliedPromotions": [],
					"taxes": [
						{
							"amount": {
								"value": "0.25",
								"currency": "USD"
							}
						}
					],
					"ebayCollectAndRemitTaxes": [
						{
							"taxType": "STATE_SALES_TAX",
							"amount": {
								"value": "0.25",
								"currency": "USD"
							},
							"collectionMethod": "NET"
						}
					],
					"properties": {
						"buyerProtection": true
					},
					"lineItemFulfillmentInstructions": {
						"minEstimatedDeliveryDate": "2020-07-07T07:00:00.000Z",
						"maxEstimatedDeliveryDate": "2020-07-07T07:00:00.000Z",
						"shipByDate": "2020-07-01T06:59:59.000Z",
						"guaranteedDelivery": false
					}
				}
			],
			"ebayCollectAndRemitTax": true,
			"salesRecordReference": "9**7",
			"totalFeeBasisAmount": {
				"value": "4.45",
				"currency": "USD"
			}
		},
		{
			"orderId": "1********5",
			"legacyOrderId": "6********",
			"creationDate": "2020-06-28T04:27:29.000Z",
			"lastModifiedDate": "2020-06-28T04:54:34.000Z",
			"orderFulfillmentStatus": "NOT_STARTED",
			"orderPaymentStatus": "PAID",
			"sellerId": "k********1",
			"buyer": {
				"username": "m********r",
				"taxAddress": {
					"city": "S********e",
					"stateOrProvince": "**",
					"postalCode": "9****5",
					"countryCode": "US"
				}
			},
			"pricingSummary": {
				"priceSubtotal": {
					"value": "6.0",
					"currency": "USD"
				},
				"deliveryCost": {
					"value": "6.0",
					"currency": "USD"
				},
				"total": {
					"value": "12.0",
					"currency": "USD"
				}
			},
			"cancelStatus": {
				"cancelState": "NONE_REQUESTED",
				"cancelRequests": []
			},
			"paymentSummary": {
				"totalDueSeller": {
					"value": "12.0",
					"currency": "USD"
				},
				"refunds": [],
				"payments": [
					{
						"paymentMethod": "PAYPAL",
						"paymentReferenceId": "9********D",
						"amount": {
							"value": "12.0",
							"currency": "USD"
						},
						"paymentStatus": "PAID",
						"paymentHolds": [
							{
								"holdReason": "NEW_SELLER",
								"holdAmount": {
									"value": "12.0",
									"currency": "USD"
								},
								"holdState": "HELD",
								"expectedReleaseDate": "2020-07-19T04:27:34.000Z",
								"releaseDate": "2020-06-28T04:27:34.000Z",
								"sellerActionsToRelease": [
									{
										"sellerActionToRelease": "MARK_AS_SHIPPED"
									}
								]
							}
						]
					}
				]
			},
			"fulfillmentStartInstructions": [
				{
					"fulfillmentInstructionsType": "SHIP_TO",
					"minEstimatedDeliveryDate": "2020-07-07T07:00:00.000Z",
					"maxEstimatedDeliveryDate": "2020-07-07T07:00:00.000Z",
					"ebaySupportedFulfillment": false,
					"shippingStep": {
						"shipTo": {
							"fullName": "C********s",
							"contactAddress": {
								"addressLine1": "2********e",
								"addressLine2": "R********t",
								"city": "S********e",
								"county": "W********y",
								"stateOrProvince": "**",
								"postalCode": "9****5",
								"countryCode": "US"
							},
							"primaryPhone": {
								"phoneNumber": "5**-***-***9"
							},
							"email": "m*****@***.com"
						},
						"shippingServiceCode": "ShippingMethodExpress"
					}
				}
			],
			"fulfillmentHrefs": [],
			"lineItems": [
				{
					"lineItemId": "1********6",
					"legacyItemId": "2********4",
					"title": "0-2020-06-27-21-26-41: Mamatha Ready to ship Fixed Price Item-1********5",
					"lineItemCost": {
						"value": "3.0",
						"currency": "USD"
					},
					"quantity": 3,
					"soldFormat": "FIXED_PRICE",
					"listingMarketplaceId": "EBAY_US",
					"purchaseMarketplaceId": "EBAY_US",
					"lineItemFulfillmentStatus": "NOT_STARTED",
					"total": {
						"value": "6.0",
						"currency": "USD"
					},
					"deliveryCost": {
						"shippingCost": {
							"value": "3.0",
							"currency": "USD"
						}
					},
					"appliedPromotions": [],
					"taxes": [],
					"properties": {
						"buyerProtection": true
					},
					"lineItemFulfillmentInstructions": {
						"minEstimatedDeliveryDate": "2020-07-07T07:00:00.000Z",
						"maxEstimatedDeliveryDate": "2020-07-07T07:00:00.000Z",
						"shipByDate": "2020-07-01T06:59:59.000Z",
						"guaranteedDelivery": false
					}
				},
				{
					"lineItemId": "1********7",
					"legacyItemId": "2********1",
					"title": "0-2020-06-27-21-26-32: Mamatha Ready to ship Fixed Price Item-1********8",
					"lineItemCost": {
						"value": "1.0",
						"currency": "USD"
					},
					"quantity": 1,
					"soldFormat": "FIXED_PRICE",
					"listingMarketplaceId": "EBAY_US",
					"purchaseMarketplaceId": "EBAY_US",
					"lineItemFulfillmentStatus": "NOT_STARTED",
					"total": {
						"value": "2.0",
						"currency": "USD"
					},
					"deliveryCost": {
						"shippingCost": {
							"value": "1.0",
							"currency": "USD"
						}
					},
					"appliedPromotions": [],
					"taxes": [],
					"properties": {
						"buyerProtection": true
					},
					"lineItemFulfillmentInstructions": {
						"minEstimatedDeliveryDate": "2020-07-07T07:00:00.000Z",
						"maxEstimatedDeliveryDate": "2020-07-07T07:00:00.000Z",
						"shipByDate": "2020-07-01T06:59:59.000Z",
						"guaranteedDelivery": false
					}
				},
				{
					"lineItemId": "1********8",
					"legacyItemId": "2*******3",
					"title": "0-2020-06-27-21-26-39: Mamatha Ready to ship Fixed Price Item-1********4",
					"lineItemCost": {
						"value": "2.0",
						"currency": "USD"
					},
					"quantity": 2,
					"soldFormat": "FIXED_PRICE",
					"listingMarketplaceId": "EBAY_US",
					"purchaseMarketplaceId": "EBAY_US",
					"lineItemFulfillmentStatus": "NOT_STARTED",
					"total": {
						"value": "4.0",
						"currency": "USD"
					},
					"deliveryCost": {
						"shippingCost": {
							"value": "2.0",
							"currency": "USD"
						}
					},
					"appliedPromotions": [],
					"taxes": [],
					"properties": {
						"buyerProtection": true
					},
					"lineItemFulfillmentInstructions": {
						"minEstimatedDeliveryDate": "2020-07-07T07:00:00.000Z",
						"maxEstimatedDeliveryDate": "2020-07-07T07:00:00.000Z",
						"shipByDate": "2020-07-01T06:59:59.000Z",
						"guaranteedDelivery": false
					}
				}
			],
			"salesRecordReference": "9**6",
			"totalFeeBasisAmount": {
				"value": "12.0",
				"currency": "USD"
			}
		},
		{
			"orderId": "2********5",
			"legacyOrderId": "6********0",
			"creationDate": "2020-05-14T23:41:46.000Z",
			"lastModifiedDate": "2020-06-01T17:29:46.000Z",
			"orderFulfillmentStatus": "NOT_STARTED",
			"orderPaymentStatus": "PAID",
			"sellerId": "k********1",
			"buyer": {
				"username": "m********r",
				"taxAddress": {
					"city": "S********e",
					"stateOrProvince": "**",
					"postalCode": "9****5",
					"countryCode": "US"
				}
			},
			"pricingSummary": {
				"priceSubtotal": {
					"value": "230.0",
					"currency": "USD"
				},
				"deliveryCost": {
					"value": "124.19",
					"currency": "USD"
				},
				"total": {
					"value": "354.19",
					"currency": "USD"
				}
			},
			"cancelStatus": {
				"cancelState": "NONE_REQUESTED",
				"cancelRequests": []
			},
			"paymentSummary": {
				"totalDueSeller": {
					"value": "276.5",
					"currency": "USD"
				},
				"refunds": [],
				"payments": [
					{
						"paymentMethod": "PAYPAL",
						"paymentReferenceId": "7********6",
						"amount": {
							"value": "276.5",
							"currency": "USD"
						},
						"paymentStatus": "PAID",
						"paymentHolds": [
							{
								"holdReason": "NEW_SELLER",
								"holdAmount": {
									"value": "276.5",
									"currency": "USD"
								},
								"holdState": "HELD",
								"expectedReleaseDate": "2020-06-04T23:42:02.000Z",
								"sellerActionsToRelease": [
									{
										"sellerActionToRelease": "MARK_AS_SHIPPED"
									}
								]
							}
						]
					}
				]
			},
			"fulfillmentStartInstructions": [
				{
					"fulfillmentInstructionsType": "SHIP_TO",
					"minEstimatedDeliveryDate": "2020-05-18T23:41:37.466Z",
					"maxEstimatedDeliveryDate": "2020-05-20T23:41:37.466Z",
					"finalDestinationAddress": {
						"addressLine1": "1********t",
						"addressLine2": "F********t",
						"city": "N********s",
						"county": "c********1",
						"stateOrProvince": "**",
						"postalCode": "2****0",
						"countryCode": "AU"
					},
					"ebaySupportedFulfillment": true,
					"shippingStep": {
						"shipTo": {
							"fullName": "P********e",
							"contactAddress": {
								"addressLine1": "c********R",
								"addressLine2": "1********0",
								"city": "E********r",
								"stateOrProvince": "**",
								"postalCode": "4****5",
								"countryCode": "US"
							},
							"primaryPhone": {
								
							}
						},
						"shippingCarrierCode": "USPS",
						"shippingServiceCode": "USPSPriorityFlatRateEnvelope",
						"shipToReferenceId": "O********U"
					}
				}
			],
			"fulfillmentHrefs": [],
			"lineItems": [
				{
					"lineItemId": "1********9",
					"legacyItemId": "2********0",
					"title": "0-2020-05-14-16-40-17: gsp  Item A********8",
					"lineItemCost": {
						"value": "30.0",
						"currency": "USD"
					},
					"quantity": 1,
					"soldFormat": "FIXED_PRICE",
					"listingMarketplaceId": "EBAY_US",
					"purchaseMarketplaceId": "EBAY_US",
					"lineItemFulfillmentStatus": "NOT_STARTED",
					"total": {
						"value": "50.29",
						"currency": "USD"
					},
					"deliveryCost": {
						"shippingCost": {
							"value": "14.99",
							"currency": "USD"
						},
						"importCharges": {
							"value": "5.3",
							"currency": "USD"
						},
						"shippingIntermediationFee": {
							"value": "0.8",
							"currency": "USD"
						}
					},
					"appliedPromotions": [],
					"taxes": [],
					"properties": {
						"buyerProtection": true
					},
					"lineItemFulfillmentInstructions": {
						"minEstimatedDeliveryDate": "2020-05-18T23:41:37.466Z",
						"maxEstimatedDeliveryDate": "2020-05-20T23:41:37.466Z",
						"guaranteedDelivery": false
					}
				},
				{
					"lineItemId": "1*******10",
					"legacyItemId": "2********2",
					"title": "0-2020-05-14-16-41-00: gsp  Item C-1********6",
					"lineItemCost": {
						"value": "120.0",
						"currency": "USD"
					},
					"quantity": 3,
					"soldFormat": "FIXED_PRICE",
					"listingMarketplaceId": "EBAY_US",
					"purchaseMarketplaceId": "EBAY_US",
					"lineItemFulfillmentStatus": "NOT_STARTED",
					"total": {
						"value": "182.34",
						"currency": "USD"
					},
					"deliveryCost": {
						"shippingCost": {
							"value": "42.57",
							"currency": "USD"
						},
						"importCharges": {
							"value": "19.77",
							"currency": "USD"
						}
					},
					"appliedPromotions": [],
					"taxes": [],
					"properties": {
						"buyerProtection": true
					},
					"lineItemFulfillmentInstructions": {
						"minEstimatedDeliveryDate": "2020-05-18T23:41:37.466Z",
						"maxEstimatedDeliveryDate": "2020-05-20T23:41:37.466Z",
						"guaranteedDelivery": false
					}
				},
				{
					"lineItemId": "1******11",
					"legacyItemId": "2********1",
					"title": "0-2020-05-14-16-40-45: gsp  Item B-1********4",
					"lineItemCost": {
						"value": "80.0",
						"currency": "USD"
					},
					"quantity": 2,
					"soldFormat": "FIXED_PRICE",
					"listingMarketplaceId": "EBAY_US",
					"purchaseMarketplaceId": "EBAY_US",
					"lineItemFulfillmentStatus": "NOT_STARTED",
					"total": {
						"value": "121.56",
						"currency": "USD"
					},
					"deliveryCost": {
						"shippingCost": {
							"value": "28.38",
							"currency": "USD"
						},
						"importCharges": {
							"value": "13.18",
							"currency": "USD"
						}
					},
					"appliedPromotions": [],
					"taxes": [],
					"properties": {
						"buyerProtection": true
					},
					"lineItemFulfillmentInstructions": {
						"minEstimatedDeliveryDate": "2020-05-18T23:41:37.466Z",
						"maxEstimatedDeliveryDate": "2020-05-20T23:41:37.466Z",
						"guaranteedDelivery": false
					}
				}
			],
			"salesRecordReference": "9**3",
			"totalFeeBasisAmount": {
				"value": "354.19",
				"currency": "USD"
			}
		}
	]
}